babel==2.10.3 \
    --hash=sha256:7614553711ee97490f732126dc077f8d0ae084ebc6a96e23db1482afabdb2c51 \
    --hash=sha256:ff56f4892c1c4bf0d814575ea23471c230d544203c7748e8c68f0089478d48eb
    # via lektor
certifi==2022.6.15 \
    --hash=sha256:84c85a9078b11105f04f3036a9482ae10e4621616db313fe045dd24743a0820d \
    --hash=sha256:fe86415d55e84719d75f8b69414f6438ac3547d2078ab91b67e779ef69378412
    # via requests
charset-normalizer==2.1.0 \
    --hash=sha256:5189b6f22b01957427f35b6a08d9a0bc45b46d3788ef5a92e978433c7a35f8a5 \
    --hash=sha256:575e708016ff3a5e3681541cb9d79312c416835686d054a23accb873b254f413
    # via requests
click==8.1.3 \
    --hash=sha256:7682dc8afb30297001674575ea00d1814d808d6a36af415a82bd481d37ba7b8e \
    --hash=sha256:bb4d8133cb15a609f44e8213d9b391b0809795062913b383c62be0ee95b1db48
    # via
    #   flask
    #   lektor
exifread==3.0.0 \
    --hash=sha256:0ac5a364169dbdf2bd62f94f5c073970ab6694a3166177f5e448b10c943e2ca4 \
    --hash=sha256:2c5c59ef03b3bbee75b82b82d2498006b3c13509f35c9a76c7552faff73fa2d5
    # via lektor
filetype==1.1.0 \
    --hash=sha256:117e25a50988d1a03a32ed510f4a15353e7291e683e94c63930497dd2c66ce24 \
    --hash=sha256:afe4a00029601f66d239b72688065cc7c219dec1c927994f90b825e9e53d8f93
    # via lektor
flask==2.2.2 \
    --hash=sha256:642c450d19c4ad482f96729bd2a8f6d32554aa1e231f4f6b4e7e5264b16cca2b \
    --hash=sha256:b9c46cc36662a7949f34b52d8ec7bb59c0d74ba08ba6cb9ce9adc1d8676d9526
    # via lektor
idna==3.3 \
    --hash=sha256:84d9dd047ffa80596e0f246e2eab0b391788b0503584e8945f2368256d2735ff \
    --hash=sha256:9d643ff0a55b762d5cdb124b8eaa99c66322e2157b69160bc32796e824360e6d
    # via requests
importlib-metadata==4.12.0 \
    --hash=sha256:637245b8bab2b6502fcbc752cc4b7a6f6243bb02b31c5c26156ad103d3d45670 \
    --hash=sha256:7401a975809ea1fdc658c3aa4f78cc2195a0e019c5cbc4c06122884e9ae80c23
    # via flask
inifile==0.4.1 \
    --hash=sha256:d9e5eb4708ebf13353c4cfce798ad47890a8bcc5fbae04630223d15d79f55e96
    # via lektor
itsdangerous==2.1.2 \
    --hash=sha256:2c2349112351b88699d8d4b6b075022c0808887cb7ad10069318a8b0bc88db44 \
    --hash=sha256:5dbbc68b317e5e42f327f9021763545dc3fc3bfe22e6deb96aaf1fc38874156a
    # via flask
jinja2==3.1.2 \
    --hash=sha256:31351a702a408a9e7595a8fc6150fc3f43bb6bf7e319770cbc0db9df9437e852 \
    --hash=sha256:6088930bfe239f0e6710546ab9c19c9ef35e29792895fed6e6e31a023a182a61
    # via
    #   flask
    #   lektor
lektor==3.3.6 \
    --hash=sha256:14195dd616477b41b75ffa36b308129e9afdd1700cd9cc71937c721201efc531 \
    --hash=sha256:9909b3cc19d18dbe8a27bfe6dbeda81593c4b582ae981d9f065ff99daf8c3e87
    # via -r requirements.in
markupsafe==2.1.1 \
    --hash=sha256:0212a68688482dc52b2d45013df70d169f542b7394fc744c02a57374a4207003 \
    --hash=sha256:089cf3dbf0cd6c100f02945abeb18484bd1ee57a079aefd52cffd17fba910b88 \
    --hash=sha256:10c1bfff05d95783da83491be968e8fe789263689c02724e0c691933c52994f5 \
    --hash=sha256:33b74d289bd2f5e527beadcaa3f401e0df0a89927c1559c8566c066fa4248ab7 \
    --hash=sha256:3799351e2336dc91ea70b034983ee71cf2f9533cdff7c14c90ea126bfd95d65a \
    --hash=sha256:3ce11ee3f23f79dbd06fb3d63e2f6af7b12db1d46932fe7bd8afa259a5996603 \
    --hash=sha256:421be9fbf0ffe9ffd7a378aafebbf6f4602d564d34be190fc19a193232fd12b1 \
    --hash=sha256:43093fb83d8343aac0b1baa75516da6092f58f41200907ef92448ecab8825135 \
    --hash=sha256:46d00d6cfecdde84d40e572d63735ef81423ad31184100411e6e3388d405e247 \
    --hash=sha256:4a33dea2b688b3190ee12bd7cfa29d39c9ed176bda40bfa11099a3ce5d3a7ac6 \
    --hash=sha256:4b9fe39a2ccc108a4accc2676e77da025ce383c108593d65cc909add5c3bd601 \
    --hash=sha256:56442863ed2b06d19c37f94d999035e15ee982988920e12a5b4ba29b62ad1f77 \
    --hash=sha256:671cd1187ed5e62818414afe79ed29da836dde67166a9fac6d435873c44fdd02 \
    --hash=sha256:694deca8d702d5db21ec83983ce0bb4b26a578e71fbdbd4fdcd387daa90e4d5e \
    --hash=sha256:6a074d34ee7a5ce3effbc526b7083ec9731bb3cbf921bbe1d3005d4d2bdb3a63 \
    --hash=sha256:6d0072fea50feec76a4c418096652f2c3238eaa014b2f94aeb1d56a66b41403f \
    --hash=sha256:6fbf47b5d3728c6aea2abb0589b5d30459e369baa772e0f37a0320185e87c980 \
    --hash=sha256:7f91197cc9e48f989d12e4e6fbc46495c446636dfc81b9ccf50bb0ec74b91d4b \
    --hash=sha256:86b1f75c4e7c2ac2ccdaec2b9022845dbb81880ca318bb7a0a01fbf7813e3812 \
    --hash=sha256:8dc1c72a69aa7e082593c4a203dcf94ddb74bb5c8a731e4e1eb68d031e8498ff \
    --hash=sha256:8e3dcf21f367459434c18e71b2a9532d96547aef8a871872a5bd69a715c15f96 \
    --hash=sha256:8e576a51ad59e4bfaac456023a78f6b5e6e7651dcd383bcc3e18d06f9b55d6d1 \
    --hash=sha256:96e37a3dc86e80bf81758c152fe66dbf60ed5eca3d26305edf01892257049925 \
    --hash=sha256:97a68e6ada378df82bc9f16b800ab77cbf4b2fada0081794318520138c088e4a \
    --hash=sha256:99a2a507ed3ac881b975a2976d59f38c19386d128e7a9a18b7df6fff1fd4c1d6 \
    --hash=sha256:a49907dd8420c5685cfa064a1335b6754b74541bbb3706c259c02ed65b644b3e \
    --hash=sha256:b09bf97215625a311f669476f44b8b318b075847b49316d3e28c08e41a7a573f \
    --hash=sha256:b7bd98b796e2b6553da7225aeb61f447f80a1ca64f41d83612e6139ca5213aa4 \
    --hash=sha256:b87db4360013327109564f0e591bd2a3b318547bcef31b468a92ee504d07ae4f \
    --hash=sha256:bcb3ed405ed3222f9904899563d6fc492ff75cce56cba05e32eff40e6acbeaa3 \
    --hash=sha256:d4306c36ca495956b6d568d276ac11fdd9c30a36f1b6eb928070dc5360b22e1c \
    --hash=sha256:d5ee4f386140395a2c818d149221149c54849dfcfcb9f1debfe07a8b8bd63f9a \
    --hash=sha256:dda30ba7e87fbbb7eab1ec9f58678558fd9a6b8b853530e176eabd064da81417 \
    --hash=sha256:e04e26803c9c3851c931eac40c695602c6295b8d432cbe78609649ad9bd2da8a \
    --hash=sha256:e1c0b87e09fa55a220f058d1d49d3fb8df88fbfab58558f1198e08c1e1de842a \
    --hash=sha256:e72591e9ecd94d7feb70c1cbd7be7b3ebea3f548870aa91e2732960fa4d57a37 \
    --hash=sha256:e8c843bbcda3a2f1e3c2ab25913c80a3c5376cd00c6e8c4a86a89a28c8dc5452 \
    --hash=sha256:efc1913fd2ca4f334418481c7e595c00aad186563bbc1ec76067848c7ca0a933 \
    --hash=sha256:f121a1420d4e173a5d96e47e9a0c0dcff965afdf1626d28de1460815f7c4ee7a \
    --hash=sha256:fc7b548b17d238737688817ab67deebb30e8073c95749d55538ed473130ec0c7
    # via
    #   jinja2
    #   werkzeug
mistune==0.8.4 \
    --hash=sha256:59a3429db53c50b5c6bcc8a07f8848cb00d7dc8bdb431a4ab41920d201d4756e \
    --hash=sha256:88a1051873018da288eee8538d476dffe1262495144b33ecb586c4ab266bb8d4
    # via lektor
python-slugify==6.1.2 \
    --hash=sha256:272d106cb31ab99b3496ba085e3fea0e9e76dcde967b5e9992500d1f785ce4e1 \
    --hash=sha256:7b2c274c308b62f4269a9ba701aa69a797e9bca41aeee5b3a9e79e36b6656927
    # via lektor
pytz==2022.2 \
    --hash=sha256:bc824559e43e8ab983426a49525079d186b25372ff63aa3430ccd527d95edc3a \
    --hash=sha256:d9b245e63af49c4e51afdec5402f56b99c0cb483a84a12bb8b7db980386baade
    # via babel
requests[security]==2.28.1 \
    --hash=sha256:7c5599b102feddaa661c826c56ab4fee28bfd17f5abca1ebbe3e7f19d7c97983 \
    --hash=sha256:8fefa2a1a1365bf5520aac41836fbee479da67864514bdb821f31ce07ce65349
    # via lektor
text-unidecode==1.3 \
    --hash=sha256:1311f10e8b895935241623731c2ba64f4c455287888b18189350b67134a822e8 \
    --hash=sha256:bad6603bb14d279193107714b288be206cac565dfa49aa5b105294dd5c4aab93
    # via python-slugify
urllib3==1.26.11 \
    --hash=sha256:c33ccba33c819596124764c23a97d25f32b28433ba0dedeb77d873a38722c9bc \
    --hash=sha256:ea6e8fb210b19d950fab93b60c9009226c63a28808bc8386e05301e25883ac0a
    # via requests
watchdog==2.1.9 \
    --hash=sha256:083171652584e1b8829581f965b9b7723ca5f9a2cd7e20271edf264cfd7c1412 \
    --hash=sha256:117ffc6ec261639a0209a3252546b12800670d4bf5f84fbd355957a0595fe654 \
    --hash=sha256:186f6c55abc5e03872ae14c2f294a153ec7292f807af99f57611acc8caa75306 \
    --hash=sha256:195fc70c6e41237362ba720e9aaf394f8178bfc7fa68207f112d108edef1af33 \
    --hash=sha256:226b3c6c468ce72051a4c15a4cc2ef317c32590d82ba0b330403cafd98a62cfd \
    --hash=sha256:247dcf1df956daa24828bfea5a138d0e7a7c98b1a47cf1fa5b0c3c16241fcbb7 \
    --hash=sha256:255bb5758f7e89b1a13c05a5bceccec2219f8995a3a4c4d6968fe1de6a3b2892 \
    --hash=sha256:43ce20ebb36a51f21fa376f76d1d4692452b2527ccd601950d69ed36b9e21609 \
    --hash=sha256:4f4e1c4aa54fb86316a62a87b3378c025e228178d55481d30d857c6c438897d6 \
    --hash=sha256:5952135968519e2447a01875a6f5fc8c03190b24d14ee52b0f4b1682259520b1 \
    --hash=sha256:64a27aed691408a6abd83394b38503e8176f69031ca25d64131d8d640a307591 \
    --hash=sha256:6b17d302850c8d412784d9246cfe8d7e3af6bcd45f958abb2d08a6f8bedf695d \
    --hash=sha256:70af927aa1613ded6a68089a9262a009fbdf819f46d09c1a908d4b36e1ba2b2d \
    --hash=sha256:7a833211f49143c3d336729b0020ffd1274078e94b0ae42e22f596999f50279c \
    --hash=sha256:8250546a98388cbc00c3ee3cc5cf96799b5a595270dfcfa855491a64b86ef8c3 \
    --hash=sha256:97f9752208f5154e9e7b76acc8c4f5a58801b338de2af14e7e181ee3b28a5d39 \
    --hash=sha256:9f05a5f7c12452f6a27203f76779ae3f46fa30f1dd833037ea8cbc2887c60213 \
    --hash=sha256:a735a990a1095f75ca4f36ea2ef2752c99e6ee997c46b0de507ba40a09bf7330 \
    --hash=sha256:ad576a565260d8f99d97f2e64b0f97a48228317095908568a9d5c786c829d428 \
    --hash=sha256:b530ae007a5f5d50b7fbba96634c7ee21abec70dc3e7f0233339c81943848dc1 \
    --hash=sha256:bfc4d351e6348d6ec51df007432e6fe80adb53fd41183716017026af03427846 \
    --hash=sha256:d3dda00aca282b26194bdd0adec21e4c21e916956d972369359ba63ade616153 \
    --hash=sha256:d9820fe47c20c13e3c9dd544d3706a2a26c02b2b43c993b62fcd8011bcc0adb3 \
    --hash=sha256:ed80a1628cee19f5cfc6bb74e173f1b4189eb532e705e2a13e3250312a62e0c9 \
    --hash=sha256:ee3e38a6cc050a8830089f79cbec8a3878ec2fe5160cdb2dc8ccb6def8552658
    # via lektor
werkzeug==2.2.2 \
    --hash=sha256:7ea2d48322cc7c0f8b3a215ed73eabd7b5d75d0b50e31ab006286ccff9e00b8f \
    --hash=sha256:f979ab81f58d7318e064e99c4506445d60135ac5cd2e177a2de0089bfd4c9bd5
    # via
    #   flask
    #   lektor
zipp==3.8.1 \
    --hash=sha256:05b45f1ee8f807d0cc928485ca40a07cb491cf092ff587c0df9cb1fd154848d2 \
    --hash=sha256:47c40d7fe183a6f21403a199b3e4192cca5774656965b0a4988ad2f8feb5f009
    # via importlib-metadata

# The following packages are considered to be unsafe in a requirements file:
pip==22.2.2 \
    --hash=sha256:3fd1929db052f056d7a998439176d3333fa1b3f6c1ad881de1885c0717608a4b \
    --hash=sha256:b61a374b5bc40a6e982426aede40c9b5a08ff20e640f5b56977f4f91fed1e39a
    # via lektor
setuptools==64.0.2 \
    --hash=sha256:2fc6046e3cddf0ef48493410c18a3f0e4fc888b4460f35e07808591481cdc2ac \
    --hash=sha256:74432f2e66b9afb4a4fceed175d9f3f24986cabf325ecbf1278ec93f846726d3
    # via lektor
